Actividad final curso: Estadística y Probabilidad
…
(5.2) Ecuación de la gráfica de dispersión (modelo matemático).

## # A tibble: 500 × 7
##    Carne Salsa Papas    Refresco carne_mult_salsa carne_cuadrado salsa_cuadrado
##    <dbl> <dbl> <chr>    <chr>               <dbl>          <dbl>          <dbl>
##  1  91.9  5.84 Medianas Mediano              536.          8440.           34.1
##  2  89.2  5.59 Grandes  Chico                499.          7952.           31.3
##  3  88.2  5.48 Grandes  Grande               483.          7788.           30.0
##  4  86.8  5.26 Grandes  Chico                457.          7540.           27.7
##  5  88.8  5.55 Grandes  Chico                493.          7890.           30.8
##  6  88.2  5.35 Grandes  Grande               472.          7771.           28.7
##  7  87.2  5.21 Grandes  Chico                454.          7599.           27.1
##  8  87.6  5.29 Medianas Grande               463.          7667.           28.0
##  9  91.3  5.85 Grandes  Grande               533.          8329.           34.2
## 10  93.4  5.77 Medianas Mediano              539.          8726.           33.2
## # ℹ 490 more rows
…
